{
    "KPlugin": {
        "Description": "Weather forecast by German Weather Service",
        "Description[ar]": "نشرة الطقس الجوية من الأرصاد الجوية الألمانية",
        "Description[az]": "Almaniya Hava Xidməti tərəfindən hava məlumatı",
        "Description[be]": "Прагноз надвор'я ад Нямецкай службы надвор'я",
        "Description[bg]": "Прогноза за времето от Германска метеорологична служба",
        "Description[ca@valencia]": "Previsió meteorològica del Servei meteorològic alemany",
        "Description[ca]": "Previsió meteorològica del Servei meteorològic alemany",
        "Description[cs]": "Předpověď počasí od Německé informační služby o počasí",
        "Description[de]": "Wettervorhersage vom Deutschen Wetterdienst",
        "Description[en_GB]": "Weather forecast by German Weather Service",
        "Description[es]": "Previsión meteorológica del servicio meteorológico alemán",
        "Description[et]": "Saksamaa ilmateenistuse ilmaennustus",
        "Description[eu]": "Eguraldi zerbitzu alemaniarraren eguraldi-iragarpena",
        "Description[fi]": "Saksan sääpalvelun sääennuste",
        "Description[fr]": "Prévisions météorologiques du service de météorologie d'Allemagne",
        "Description[hu]": "Időjárás-előrejelzés a Német Meteorológiai Szolgálattól",
        "Description[ia]": "Prevision Meteorologic per Servicio Meteorologic de Germania",
        "Description[id]": "Prakiraan cuaca berdasarkan German Wearher Service",
        "Description[is]": "Veðurspá frá þýsku veðurþjónustunni",
        "Description[it]": "Previsioni meteo del servizio meteorologico tedesco",
        "Description[ja]": "German Weather Service による天気予報",
        "Description[ko]": "독일 기상 서비스의 일기 예보",
        "Description[lt]": "Orų prognozės iš Vokietijos orų tarnybos",
        "Description[nl]": "Weersvoorspelling door Duitse weerdienst",
        "Description[nn]": "Vêrmelding frå German Weather Service",
        "Description[pa]": "ਜਰਮਨ ਮੌਸਮ ਸੇਵਾ ਵਲੋਂ ਮੌਸਮ ਭਵਿੱਖਬਾਣੀ",
        "Description[pl]": "Prognoza pogody wg niemieckiej usługi pogodowej",
        "Description[pt]": "Previsão meteorológica da wetter.com",
        "Description[pt_BR]": "Previsão do tempo pelo Serviço Meteorológico Alemão",
        "Description[ro]": "Prognoza vremii de la Serviciul Meteorologic German",
        "Description[ru]": "Прогноз погоды от немецкой службы погоды",
        "Description[sk]": "Predpoveď počasia z German Weather Service",
        "Description[sl]": "Vremenska napoved Nemške vremenske službe",
        "Description[sv]": "Väderprognos av Tyska vädertjänsten",
        "Description[tr]": "Alman Hava Durumu Hizmeti'nden hava durumu tahmini",
        "Description[uk]": "Прогноз погоди від Німецької служби погоди",
        "Description[vi]": "Dự báo thời tiết của Dịch vụ Thời tiết Đức",
        "Description[x-test]": "xxWeather forecast by German Weather Servicexx",
        "Description[zh_CN]": "德国天气服务提供的天气预报",
        "Description[zh_TW]": "德國氣象局的氣象預報",
        "Icon": "noneyet",
        "Id": "dwd",
        "Name": "German Weather Service",
        "Name[ar]": "خدمة الأرصاد الجوية الألمانية",
        "Name[az]": "Almaniya Hava Xidməti",
        "Name[be]": "Нямецкая служба надвор'я",
        "Name[bg]": "Германска метеорологична служба",
        "Name[ca@valencia]": "Servei meteorològic alemany",
        "Name[ca]": "Servei meteorològic alemany",
        "Name[cs]": "Německá informační služba o počasí",
        "Name[de]": "Deutscher Wetterdienst",
        "Name[en_GB]": "German Weather Service",
        "Name[es]": "Servicio meteorológico alemán",
        "Name[et]": "Saksamaa ilmateenistus",
        "Name[eu]": "Alemaniako eguraldi-zerbitzua",
        "Name[fi]": "Saksalainen sääpalvelu",
        "Name[fr]": "service de météorologie d'Allemagne",
        "Name[hu]": "Német Meteorológiai Szolgálat",
        "Name[ia]": "Servicio Meteorologic de Germania",
        "Name[id]": "German Weather Service",
        "Name[is]": "Þýska veðurþjónustan",
        "Name[it]": "Servizio meteorologico tedesco",
        "Name[ja]": "German Weather Service",
        "Name[ka]": "ამინდის გერმანული სერვისი",
        "Name[ko]": "독일 기상 서비스",
        "Name[lt]": "Debian orų tarnyba",
        "Name[nl]": "Duitse weerdienst",
        "Name[nn]": "Tysk vêrteneste",
        "Name[pa]": "ਜਰਮਨ ਮੌਸਮ ਸਰਵਿਸ",
        "Name[pl]": "Niemiecka usługa pogodowa",
        "Name[pt]": "Serviço Meteorológico Alemão",
        "Name[pt_BR]": "Serviço Meteorológico Alemão",
        "Name[ro]": "Serviciul Meteorologic German",
        "Name[ru]": "Немецкая служба погоды",
        "Name[sk]": "German Weather Service",
        "Name[sl]": "Nemška vremenska služba",
        "Name[sv]": "Tyska vädertjänsten",
        "Name[ta]": "ஜெர்மன் வானிலை சேவை",
        "Name[tr]": "Alman Hava Durumu Hizmeti",
        "Name[uk]": "Німецька служба погоди",
        "Name[vi]": "Dịch vụ Thời tiết Đức",
        "Name[x-test]": "xxGerman Weather Servicexx",
        "Name[zh_CN]": "德国天气服务",
        "Name[zh_TW]": "德國氣象局"
    },
    "X-KDE-ParentApp": "weatherengine"
}
