{
    "KPlugin": {
        "Authors": [
            {
                "Email": "plasma-devel@kde.org",
                "Name": "Plasma Team",
                "Name[ar]": "فريق بلازما",
                "Name[az]": "Plasma komandası",
                "Name[be]": "Каманда Plasma",
                "Name[bg]": "Екипът на Plasma",
                "Name[ca@valencia]": "L'equip de Plasma",
                "Name[ca]": "L'equip del Plasma",
                "Name[cs]": "Team Plasma",
                "Name[de]": "Das Plasma-Team",
                "Name[en_GB]": "Plasma Team",
                "Name[es]": "Equipo de Plasma",
                "Name[et]": "Plasma meeskond",
                "Name[eu]": "Plasma taldea",
                "Name[fi]": "Plasma-työryhmä",
                "Name[fr]": "Équipe de Plasma",
                "Name[hu]": "A Plasma fejlesztői",
                "Name[ia]": "Equipa de Plasma",
                "Name[id]": "Tim Plasma",
                "Name[is]": "Plasma-þróunarhópurinn",
                "Name[it]": "La squadra di Plasma",
                "Name[ja]": "Plasma チーム",
                "Name[ka]": "Plasma-ის გუნდი",
                "Name[ko]": "Plasma 팀",
                "Name[lt]": "Plasma komanda",
                "Name[nl]": "Team van Plasma",
                "Name[nn]": "Utviklingslaget for Plasma",
                "Name[pa]": "ਪਲਾਜ਼ਮਾ ਟੀਮ",
                "Name[pl]": "Zespół Plazmy",
                "Name[pt]": "Equipa do Plasma",
                "Name[pt_BR]": "Temas do Plasma",
                "Name[ro]": "Echipa Plasma",
                "Name[ru]": "Команда разработчиков Plasma",
                "Name[sk]": "Plasma Tím",
                "Name[sl]": "Ekipa Plasme",
                "Name[sv]": "Plasma-gruppen",
                "Name[ta]": "பிளாஸ்மா குழு",
                "Name[tr]": "Plasma Takımı",
                "Name[uk]": "Команда розробників Плазми",
                "Name[vi]": "Đội Plasma",
                "Name[x-test]": "xxPlasma Teamxx",
                "Name[zh_CN]": "Plasma 开发团队",
                "Name[zh_TW]": "Plasma 團隊"
            }
        ],
        "Description": "Find Plasma widgets that can be run as standalone windows",
        "Description[ar]": "اعثر على ودجات بلازما التي يمكن أن تعمل كنوافذ مستقلّة",
        "Description[az]": "Müstəqil pəncərə şəklində açıla bilən Plasma vidjetlərini tapmaq",
        "Description[be]": "Пошук віджэтаў Plasma, якія можна запускаць у асобных вокнах",
        "Description[bg]": "Намира Plasma уиджети, които могат да се изпълняват в самостоятелен прозорец",
        "Description[ca@valencia]": "Busca ginys de Plasma que es poden executar en finestres autònomes",
        "Description[ca]": "Cerca ginys del Plasma que es poden executar en finestres autònomes",
        "Description[cs]": "Najít Plasma widgety, které mohou být spuštěny ve vlastních oknech",
        "Description[da]": "Find Plasma-widgets der kan køres som selvstændige vinduer",
        "Description[de]": "Plasma-Miniprogramme finden, die als eigenständige Anwendungen gestartet werden können",
        "Description[en_GB]": "Find Plasma widgets that can be run as standalone windows",
        "Description[es]": "Busca componentes Plasma que se pueden ejecutar como ventanas independientes",
        "Description[et]": "Plasma vidinate otsimine, mida saab panna tööle autonoomsetes akendes",
        "Description[eu]": "Bilatu leiho autonomo gisa exekuta daitezkeen Plasmaren trepetak",
        "Description[fi]": "Etsi Plasma-sovelmia, jotka voi ajaa omassa ikkunassaan",
        "Description[fr]": "Trouver des composants graphiques de Plasma pouvant être lancés comme des fenêtres autonomes.",
        "Description[hu]": "Megkeresi az önálló alkalmazásként futtatható Plasma-elemeket",
        "Description[ia]": "Trova  widgets (elementos graphic) de plasma que on pote executar como fenestras sole",
        "Description[id]": "Temukan widget Plasma yang bisa berjalan sebagai jendela mandiri",
        "Description[is]": "Finnur Plasmagræjur sem hægt er að keyra sem sjálfstæð forrit",
        "Description[it]": "Trova i plasmoidi che possono essere eseguiti come finestre autonoma",
        "Description[ja]": "スタンドアローンのウィンドウとして起動できる Plasma ウィジェットを検索します",
        "Description[ko]": "창으로 실행될 수 있는 위젯을 찾습니다",
        "Description[lt]": "Rasti Plasma valdiklius, kurie gali veikti kaip atskiri langai",
        "Description[nl]": "Zoek Plasma widgets die als zelfstandige vensters kunnen draaien",
        "Description[nn]": "Finn Plasma-element som kan køyrast som frittstående program",
        "Description[pa]": "ਪਲਾਜ਼ਾਮ ਵਿਦਜੈੱਟ ਲੱਭੋ, ਜੋ ਕਿ ਇੱਕਲੇ ਵਿੰਡੋਜ਼ ਵਜੋਂ ਚੱਲ ਸਕਦੇ ਹਨ",
        "Description[pl]": "Znajduje elementy interfejsu, które mogą działać jako oddzielne okna",
        "Description[pt]": "Procurar elementos do Plasma que possam ser executados como janelas autónomas",
        "Description[pt_BR]": "Localiza widgets do Plasma que possam ser executados como janelas independentes",
        "Description[ro]": "Găsește controale Plasma ce pot rula în ferestre independente",
        "Description[ru]": "Поиск виджетов, способных работать как самостоятельные приложения",
        "Description[sk]": "Nájde miniaplikácie Plasmy, ktoré môžu byť spustené v samostatných oknách",
        "Description[sl]": "Najdite gradnike za Plasmo, ki jih je mogoče zagnati v samostojnem oknu",
        "Description[sv]": "Hitta grafiska Plasma-komponenter som kan köras som fristående fönster",
        "Description[ta]": "தனி சாளரமாக இயங்கக் கூடிய பிளாஸ்மாய்டுகளைக் கண்டுபிடிக்கும்",
        "Description[tr]": "Tek başına pencere olarak da çalışabilen Plasma araç takımlarınını bul",
        "Description[uk]": "Пошук віджетів Плазми, які можна запускати у окремих вікнах",
        "Description[vi]": "Tìm các phụ kiện Plasma có thể chạy được như các cửa sổ độc lập",
        "Description[x-test]": "xxFind Plasma widgets that can be run as standalone windowsxx",
        "Description[zh_CN]": "查找可作为独立窗口运行的 Plasma 挂件",
        "Description[zh_TW]": "尋找可以在獨立視窗執行的 Plasma 元件",
        "EnabledByDefault": true,
        "Icon": "plasma",
        "Id": "org.kde.windowedwidgets",
        "License": "LGPL",
        "Name": "Windowed widgets",
        "Name[ar]": "الودجات ذات النوافذ",
        "Name[az]": "Mobil Vidjetlər",
        "Name[be]": "Аконныя віджэты",
        "Name[bg]": "Уиджети в самостоятелен прозорец",
        "Name[bs]": "Grafičke kontrole s prozorom",
        "Name[ca@valencia]": "Ginys en finestres",
        "Name[ca]": "Ginys en finestres",
        "Name[cs]": "Widgety v okně",
        "Name[da]": "Widgets som vinduer",
        "Name[de]": "Eigenständige Miniprogramme",
        "Name[el]": "Συστατικά σε παράθυρο",
        "Name[en_GB]": "Windowed widgets",
        "Name[es]": "Componentes en ventana",
        "Name[et]": "Akendesse paigutatavad vidinad",
        "Name[eu]": "Trepeta leihodunak",
        "Name[fi]": "Ikkunoidut sovelmat",
        "Name[fr]": "Composants graphiques fenêtrés",
        "Name[ga]": "Giuirléidí i bhfuinneoga",
        "Name[gl]": "Trebellos en xanelas",
        "Name[he]": "ישומוני חלונות",
        "Name[hi]": "विंडोज़ विडजेट",
        "Name[hr]": "Widgeti u prozorima",
        "Name[hsb]": "Widgets we woknach",
        "Name[hu]": "Önálló widgetek",
        "Name[ia]": "Widgets (elemento graphic) in le fenestra",
        "Name[id]": "Windowed widgets",
        "Name[is]": "Græjur í gluggum",
        "Name[it]": "Oggetti a finestra",
        "Name[ja]": "ウィンドウ化されたウィジェット",
        "Name[ka]": "ფანჯარაში გაშვებული ვიჯეტები",
        "Name[kk]": "Терезелерлі виджеттер",
        "Name[km]": "ធាតុក្រាហ្វិក​​វីនដូ",
        "Name[kn]": "ವಿಂಡೋವ್ಡ್ ನಿಯಂತ್ರಣಾ ಸಂಪರ್ಕತಟಗಳು (ವಿಡ್ಗೆಟ್)",
        "Name[ko]": "창에 들어 있는 위젯",
        "Name[lt]": "Languoti valdikliai",
        "Name[lv]": "Logoti sīkrīki",
        "Name[ml]": "ജാലകീയ വിഡ്ജറ്റുകൾ",
        "Name[mr]": "चौकटीतील विजेट्स",
        "Name[nb]": "Skjermelementer i vinduer",
        "Name[nds]": "Lüttprogrammen as Enkelfinstern",
        "Name[nl]": "Widgets weergegeven in vensters",
        "Name[nn]": "Skjermelement i vindauge",
        "Name[pa]": "ਵਿੰਡੋ ਵਿਜੈੱਟ",
        "Name[pl]": "Elementy interfejsu w oknach",
        "Name[pt]": "Elementos em janelas",
        "Name[pt_BR]": "Widgets em janelas",
        "Name[ro]": "Controale în fereastră",
        "Name[ru]": "Мобильные виджеты",
        "Name[si]": "කවුළුකල විජට්ටු",
        "Name[sk]": "Miniaplikácie v oknách",
        "Name[sl]": "Gradniki v oknih",
        "Name[sr@ijekavian]": "виџети с прозором",
        "Name[sr@ijekavianlatin]": "vidžeti s prozorom",
        "Name[sr@latin]": "vidžeti s prozorom",
        "Name[sr]": "виџети с прозором",
        "Name[sv]": "Fönsterbaserade grafiska komponenter",
        "Name[ta]": "சாளர பிளாஸ்மாய்டுகள்",
        "Name[th]": "วิดเจ็ตที่เป็นหน้าต่าง",
        "Name[tr]": "Pencerelendirilmiş araç takımları",
        "Name[ug]": "كۆزنەكلىك ۋىجېتلار",
        "Name[uk]": "Віджети-вікна",
        "Name[vi]": "Phụ kiện được cửa sổ hoá",
        "Name[wa]": "Ahesses metous dins des fniesses",
        "Name[x-test]": "xxWindowed widgetsxx",
        "Name[zh_CN]": "窗口化挂件",
        "Name[zh_TW]": "視窗元件"
    }
}
